simulation/qsim/mic1.msim.vcd
$comment
	File created using the following command:
		vcd file mic1.msim.vcd -direction
$end
$date
	Wed May 07 09:39:24 2025
$end
$version
	ModelSim Version 10.1d
$end
$timescale
	1ps
$end
$scope module ULA_1bit_vlg_vec_tst $end
$var reg 1 ! A $end
$var reg 1 " B $end
$var reg 1 # CIN $end
$var reg 1 $ ENA $end
$var reg 1 % ENB $end
$var reg 1 & F0 $end
$var reg 1 ' F1 $end
$var reg 1 ( INVA $end
$var wire 1 ) carry $end
$var wire 1 * out $end
$var wire 1 + sampler $end
$scope module i1 $end
$var wire 1 , gnd $end
$var wire 1 - vcc $end
$var wire 1 . unknown $end
$var tri1 1 / devclrn $end
$var tri1 1 0 devpor $end
$var tri1 1 1 devoe $end
$var wire 1 2 B~combout $end
$var wire 1 3 INVA~combout $end
$var wire 1 4 ENA~combout $end
$var wire 1 5 A~combout $end
$var wire 1 6 inst~combout $end
$var wire 1 7 ENB~combout $end
$var wire 1 8 BENB~combout $end
$var wire 1 9 CIN~combout $end
$var wire 1 : F0~combout $end
$var wire 1 ; F1~combout $end
$var wire 1 < inst2|inst~0_combout $end
$var wire 1 = inst2|inst2~combout $end
$var wire 1 > or~0_combout $end
$var wire 1 ? or~1_combout $end
$upscope $end
$upscope $end
$enddefinitions $end
#0
$dumpvars
0!
0"
0#
1$
1%
0&
0'
0(
x)
x*
x+
0,
1-
x.
1/
10
11
02
03
14
05
x6
17
x8
09
0:
0;
x<
x=
x>
x?
$end
#820
06
#1086
08
#1730
0=
#5068
0>
#5133
0)
#5179
0<
#5732
0?
#9096
0*
#100000
1"
0+
#100989
12
#102075
18
#102474
1?
#105838
1*
#200000
1!
0"
1+
#200989
02
15
#201809
16
#202075
08
#202521
1>
#300000
1"
0+
#300989
12
#302075
18
#400000
1'
0!
0"
1+
#400850
1;
#400989
02
05
#401809
06
#402075
08
#402521
0>
#403185
0?
#406549
0*
#500000
1"
0+
#500989
12
#502075
18
#502474
1?
#505838
1*
#600000
1!
0"
1+
#600989
02
15
#601809
16
#602075
08
#602521
1>
#700000
1"
0+
#700989
12
#702075
18
#800000
1&
0'
0!
0"
1+
#800850
0;
#800852
1:
#800989
02
05
#801809
06
#802075
08
#802521
0>
#803185
0?
#806031
1<
#806200
0<
1>
#806549
0*
#806864
1?
#810228
1*
#900000
1"
0+
#900989
12
#902075
18
#1000000
1!
0"
1+
#1000989
02
15
#1001809
16
#1002075
08
#1002521
0>
#1100000
1"
0+
#1100989
12
#1102075
18
#1102474
0?
#1105838
0*
#1120000
1'
1+
#1120850
1;
#1126200
1<
#1126589
1=
#1129992
1)
#1200000
0!
0"
0+
#1200989
02
05
#1201809
06
#1202075
08
#1202496
0=
#1205899
0)
#1300000
1"
1+
#1300989
12
#1302075
18
#1302474
1?
#1305838
1*
#1400000
1!
0"
0+
#1400989
02
15
#1401809
16
#1402075
08
#1500000
1"
1+
#1500989
12
#1502075
18
#1502474
0?
#1502719
1=
#1505838
0*
#1506122
1)
#1600000
1#
0!
0"
0+
#1600862
19
#1600989
02
05
#1601809
06
#1602075
08
#1602496
0=
#1605899
0)
#1605933
1?
#1609297
1*
#1700000
1"
1+
#1700989
12
#1702075
18
#1702474
0?
#1702719
1=
#1705838
0*
#1706122
1)
#1800000
1!
0"
0+
#1800989
02
15
#1801809
16
#1802075
08
#1900000
1"
1+
#1900989
12
#1902075
18
#1902474
1?
#1905838
1*
